<?xml version="1.0" encoding="UTF-8" standalone="no"?>
<!-- Created with Inkscape (http://www.inkscape.org/) -->

<svg
   xmlns:dc="http://purl.org/dc/elements/1.1/"
   xmlns:cc="http://creativecommons.org/ns#"
   xmlns:rdf="http://www.w3.org/1999/02/22-rdf-syntax-ns#"
   xmlns:svg="http://www.w3.org/2000/svg"
   xmlns="http://www.w3.org/2000/svg"
   xmlns:xlink="http://www.w3.org/1999/xlink"
   xmlns:sodipodi="http://sodipodi.sourceforge.net/DTD/sodipodi-0.dtd"
   xmlns:inkscape="http://www.inkscape.org/namespaces/inkscape"
   width="2560"
   height="800"
   viewBox="0 0 2560 799.99999"
   id="svg2"
   version="1.1"
   inkscape:version="0.91 r13725"
   sodipodi:docname="background.svg"
   inkscape:export-filename="/hawm/reverie-in-g/Assets/images/background-sky.png"
   inkscape:export-xdpi="90"
   inkscape:export-ydpi="90">
  <defs
     id="defs4" />
  <sodipodi:namedview
     id="base"
     pagecolor="#ffffff"
     bordercolor="#666666"
     borderopacity="1.0"
     inkscape:pageopacity="0.0"
     inkscape:pageshadow="2"
     inkscape:zoom="0.12374369"
     inkscape:cx="1331.4502"
     inkscape:cy="360.13562"
     inkscape:document-units="px"
     inkscape:current-layer="layer4"
     showgrid="false"
     units="px"
     inkscape:snap-bbox="true"
     inkscape:bbox-paths="true"
     inkscape:bbox-nodes="true"
     inkscape:snap-bbox-edge-midpoints="true"
     inkscape:snap-bbox-midpoints="true"
     inkscape:object-paths="true"
     inkscape:snap-intersection-paths="true"
     inkscape:object-nodes="true"
     inkscape:snap-smooth-nodes="true"
     inkscape:snap-midpoints="true"
     inkscape:snap-object-midpoints="true"
     inkscape:snap-center="true"
     inkscape:snap-text-baseline="true"
     inkscape:snap-page="true"
     inkscape:snap-global="true"
     inkscape:window-width="1920"
     inkscape:window-height="1022"
     inkscape:window-x="0"
     inkscape:window-y="0"
     inkscape:window-maximized="1"
     showguides="true"
     inkscape:guide-bbox="true" />
  <metadata
     id="metadata7">
    <rdf:RDF>
      <cc:Work
         rdf:about="">
        <dc:format>image/svg+xml</dc:format>
        <dc:type
           rdf:resource="http://purl.org/dc/dcmitype/StillImage" />
        <dc:title></dc:title>
      </cc:Work>
    </rdf:RDF>
  </metadata>
  <g
     inkscape:groupmode="layer"
     id="layer4"
     inkscape:label="sky"
     style="display:inline">
    <g
       id="layer_sky"
       inkscape:label="layer_sky">
      <rect
         y="-2.2737368e-13"
         x="0"
         height="1211.4286"
         width="2560"
         id="rect4535"
         style="opacity:1;fill:#19aeff;fill-opacity:1;stroke:none;stroke-width:3.20000005;stroke-linecap:round;stroke-linejoin:bevel;stroke-miterlimit:4;stroke-dasharray:none;stroke-opacity:1" />
    </g>
  </g>
  <g
     inkscape:groupmode="layer"
     id="layer3"
     inkscape:label="Clouds 2"
     style="display:none">
    <g
       id="layer_clouds2"
       inkscape:label="layer_clouds2">
      <use
         height="100%"
         width="100%"
         transform="matrix(0.28809919,0,0,0.28809919,412.6336,610.44262)"
         id="use4489"
         xlink:href="#path4383"
         y="0"
         x="0" />
      <use
         height="100%"
         width="100%"
         transform="matrix(0.28809919,0,0,0.28809919,349.73871,713.91487)"
         id="use4491"
         xlink:href="#path4429"
         y="0"
         x="0" />
      <use
         x="0"
         y="0"
         xlink:href="#path4429"
         id="use4512"
         transform="matrix(0.39991263,0,0,0.39991263,597.99576,722.19995)"
         width="100%"
         height="100%" />
      <use
         x="0"
         y="0"
         xlink:href="#path4383"
         id="use4514"
         transform="matrix(-0.18325181,0,0,0.18325181,1139.528,568.195)"
         width="100%"
         height="100%" />
      <use
         height="100%"
         width="100%"
         transform="matrix(-0.26665314,0,0,0.26665314,1178.7939,682.4191)"
         id="use4516"
         xlink:href="#path4383"
         y="0"
         x="0" />
      <use
         height="100%"
         width="100%"
         transform="matrix(-0.30069012,-0.04054492,0.04054492,-0.30069012,1070.9592,-274.86754)"
         id="use4518"
         xlink:href="#path4429"
         y="0"
         x="0" />
      <use
         x="0"
         y="0"
         xlink:href="#path4383"
         id="use4520"
         transform="matrix(-0.14524205,0,0,0.14524205,894.93198,605.90315)"
         width="100%"
         height="100%" />
      <use
         x="0"
         y="0"
         xlink:href="#path4429"
         id="use4522"
         transform="matrix(-0.28809919,0,0,0.28809919,1800.2101,853.91487)"
         width="100%"
         height="100%" />
      <use
         height="100%"
         width="100%"
         transform="matrix(-0.39991263,0,0,0.39991263,2391.953,710.77138)"
         id="use4524"
         xlink:href="#path4429"
         y="0"
         x="0" />
      <use
         height="100%"
         width="100%"
         transform="matrix(0.19408699,0,0,-0.0994939,2027.7763,119.3617)"
         id="use4526"
         xlink:href="#path4383"
         y="0"
         x="0" />
      <use
         x="0"
         y="0"
         xlink:href="#path4383"
         id="use4528"
         transform="matrix(0.28241962,0,0,-0.14477543,1986.1888,57.345398)"
         width="100%"
         height="100%" />
      <use
         x="0"
         y="0"
         xlink:href="#path4429"
         id="use4530"
         transform="matrix(0.30069012,-0.04054492,-0.04054492,-0.30069012,1918.9896,-289.15325)"
         width="100%"
         height="100%" />
      <use
         height="100%"
         width="100%"
         transform="matrix(-0.35618439,0,0,0.37900859,2027.0358,800.7003)"
         id="use4532"
         xlink:href="#path4429"
         y="0"
         x="0" />
    </g>
  </g>
  <g
     inkscape:groupmode="layer"
     id="layer2"
     inkscape:label="Clouds"
     style="display:none">
    <path
       style="opacity:1;fill:#daf1ff;fill-opacity:1;stroke:none;stroke-width:3.20000005;stroke-linecap:round;stroke-linejoin:bevel;stroke-miterlimit:4;stroke-dasharray:none;stroke-opacity:1"
       d="m -753.31793,-1831.7764 a 155.71428,152.85715 0 0 0 -155.71484,152.8574 155.71428,152.85715 0 0 0 0.36328,10.0782 108.57143,97.14286 0 0 0 -106.07811,97.0644 108.57143,97.14286 0 0 0 0.9668,11.9863 74.285713,60 0 0 0 -9.5371,-0.5586 74.285713,60 0 0 0 -74.2871,60 74.285713,60 0 0 0 6.5156,24.3907 58.57143,45.714287 0 0 0 -43.6582,44.1816 58.57143,45.714287 0 0 0 58.5722,45.7129 58.57143,45.714287 0 0 0 42.4668,-14.3106 81.428574,64.285713 0 0 0 80.39067,54.3106 81.428574,64.285713 0 0 0 73.72266,-37.1641 87.14286,65.714287 0 0 0 0.5625,0.021 87.14286,65.714287 0 0 0 7.92578,-0.3262 64.285713,64.285713 0 0 0 60.64649,43.1836 64.285713,64.285713 0 0 0 20.70312,-3.5078 98.571426,95.714287 0 0 0 47.86719,12.0801 98.571426,95.714287 0 0 0 60.51758,-20.2168 87.14286,60 0 0 0 45.19725,8.7871 87.14286,60 0 0 0 62.04883,-17.9453 61.42857,81.428574 0 0 0 32.23633,12.2324 61.42857,81.428574 0 0 0 48.98633,-32.4629 88.571426,82.85714 0 0 0 26.72851,3.8907 88.571426,82.85714 0 0 0 55.36134,-18.2032 88.571426,65.714287 0 0 0 38.92383,6.7754 88.571426,65.714287 0 0 0 88.57226,-65.7148 88.571426,65.714287 0 0 0 -88.57226,-65.7149 88.571426,65.714287 0 0 0 -0.0703,0 45.714287,47.142857 0 0 0 0.0703,-1.4296 45.714287,47.142857 0 0 0 -27.17578,-43.0547 67.14286,90 0 0 0 -16.88477,-33.8594 47.142857,52.857143 0 0 0 1.20313,-11.6582 47.142857,52.857143 0 0 0 -44.72853,-52.7227 122.85714,130 0 0 0 -118.12891,-94.4199 122.85714,130 0 0 0 -6.08398,0.2285 52.857143,31.428572 0 0 0 -41.05859,-11.6562 52.857143,31.428572 0 0 0 -2.89649,0.061 155.71428,152.85715 0 0 0 -125.67382,-62.918 z"
       id="path4383"
       inkscape:connector-curvature="0" />
    <path
       style="opacity:1;fill:#daf1ff;fill-opacity:1;stroke:none;stroke-width:3.20000005;stroke-linecap:round;stroke-linejoin:bevel;stroke-miterlimit:4;stroke-dasharray:none;stroke-opacity:1"
       d="m 565.2526,-1646.0627 a 100,120 0 0 0 -68.4434,32.625 60,62.857143 0 0 0 -11.5566,-1.1972 60,62.857143 0 0 0 -59.50196,55.2148 75.714287,82.85714 0 0 0 -8.7695,4.836 34.285713,47.142857 0 0 0 -11.7285,-2.9063 34.285713,47.142857 0 0 0 -31.5215,28.625 61.42857,61.42857 0 0 0 -24.2441,5.6895 31.428572,42.857143 0 0 0 -15.6622,-5.7442 31.428572,42.857143 0 0 0 -30.7675,34.1602 54.285713,41.42857 0 0 0 -34.9473,38.6972 54.285713,41.42857 0 0 0 54.2852,41.4278 54.285713,41.42857 0 0 0 13.5234,-1.3379 41.42857,64.285713 0 0 0 30.7637,21.3379 41.42857,64.285713 0 0 0 25.7363,-13.9102 61.42857,61.42857 0 0 0 17.5723,-8.3633 75.714287,82.85714 0 0 0 45.26166,16.5606 75.714287,82.85714 0 0 0 32.5508,-8.1367 28.571428,27.142857 0 0 0 11.7343,2.4218 28.571428,27.142857 0 0 0 23.3125,-11.4785 100,120 0 0 0 42.4024,11.4785 100,120 0 0 0 19.7344,-2.4843 37.142857,38.57143 0 0 0 25.9804,11.0566 37.142857,38.57143 0 0 0 31.9024,-18.9043 110,61.42857 0 0 0 60.955,10.332 110,61.42857 0 0 0 60.3965,-10.123 42.857143,35.714287 0 0 0 12.461,1.5508 42.857143,35.714287 0 0 0 31.998,-12.0078 72.85714,60 0 0 0 32.2871,6.2949 72.85714,60 0 0 0 34.7129,-7.3145 50,40 0 0 0 13.8574,1.5996 50,40 0 0 0 50,-40 50,40 0 0 0 -31.2168,-37.0429 72.85714,60 0 0 0 -67.3535,-37.2422 72.85714,60 0 0 0 -7.4512,0.3808 91.428574,68.571426 0 0 0 -91.121,-63.2382 91.428574,68.571426 0 0 0 -56.7754,14.8261 85.714287,75.714287 0 0 0 -41.7364,-11.7773 100,120 0 0 0 -78.6308,-45.9063 z"
       id="path4429"
       inkscape:connector-curvature="0" />
    <g
       id="layer_clouds"
       inkscape:label="#g4568">
      <use
         height="100%"
         width="100%"
         transform="matrix(0.84653466,0,0,0.7029703,600.22083,1717.6561)"
         id="use4471"
         xlink:href="#path4383"
         y="0"
         x="0" />
      <use
         x="0"
         y="0"
         xlink:href="#path4383"
         id="use4473"
         transform="matrix(1.1434949,0,0,0.61459689,1772.7991,1586.0592)"
         width="100%"
         height="100%" />
      <use
         height="100%"
         width="100%"
         transform="matrix(-0.68898029,0,0,0.59451204,729.89319,1489.0137)"
         id="use4475"
         xlink:href="#path4383"
         y="0"
         x="0" />
      <use
         x="0"
         y="0"
         xlink:href="#path4383"
         id="use4477"
         transform="matrix(-0.89067119,0,0,0.59451204,1042.8072,1597.4719)"
         width="100%"
         height="100%" />
      <use
         height="100%"
         width="100%"
         transform="matrix(0.89067119,0,0,0.59451204,2758.1287,1563.3277)"
         id="use4479"
         xlink:href="#path4383"
         y="0"
         x="0" />
      <use
         x="0"
         y="0"
         xlink:href="#path4383"
         id="use4483"
         transform="matrix(0.84653466,0,0,0.7029703,3160.2208,1717.6561)"
         width="100%"
         height="100%" />
      <use
         height="100%"
         width="100%"
         transform="matrix(0.47405193,0,0,0.53725601,654.90956,1429.1075)"
         id="use4485"
         xlink:href="#path4383"
         y="0"
         x="0" />
      <use
         x="0"
         y="0"
         xlink:href="#path4383"
         id="use4487"
         transform="matrix(-0.72039028,0.25032157,-0.27192435,-0.78256007,-416.39835,-293.91738)"
         width="100%"
         height="100%" />
    </g>
  </g>
  <g
     inkscape:label="Water"
     inkscape:groupmode="layer"
     id="layer1"
     transform="translate(0,-252.36225)"
     style="display:none">
    <g
       id="Water"
       transform="translate(-2373.757,-2954.5134)"
       inkscape:label="Water"
       inkscape:tile-cx="-348.50263"
       inkscape:tile-cy="1292.3757"
       inkscape:tile-w="98"
       inkscape:tile-h="234"
       inkscape:tile-x0="-397.50263"
       inkscape:tile-y0="1175.3757">
      <path
         sodipodi:nodetypes="cccccc"
         inkscape:connector-curvature="0"
         id="path4136"
         d="m -238,1528.3623 0,-110 c 15.95662,-0.7865 52.87869,-1.5843 67.9875,-10 5.07508,5.3952 16.60227,9.7013 30.0125,10 l 0,110 z"
         style="fill:#19aeff;fill-rule:evenodd;stroke:none;stroke-width:1px;stroke-linecap:butt;stroke-linejoin:miter;stroke-opacity:1" />
      <path
         style="fill:#005c94;fill-rule:evenodd;stroke:none;stroke-width:1px;stroke-linecap:butt;stroke-linejoin:miter;stroke-opacity:1"
         d="m -238,1642.3623 0,-213 c 15.95662,-0.7078 52.87869,-1.4259 67.9875,-9 5.07508,4.8557 16.60227,8.7312 30.0125,9 l 0,213 z"
         id="path4280"
         inkscape:connector-curvature="0"
         sodipodi:nodetypes="cccccc" />
    </g>
    <use
       x="0"
       y="0"
       inkscape:tiled-clone-of="#Water"
       xlink:href="#Water"
       id="use4327"
       width="100%"
       height="100%"
       transform="translate(476.79198,-113.13711)" />
    <g
       id="layer_water"
       inkscape:label="layer_water">
      <use
         height="100%"
         width="100%"
         id="use4329"
         transform="matrix(1.0047096,0,0,1,2624.0573,2424.9448)"
         xlink:href="#Water"
         inkscape:tiled-clone-of="#Water"
         y="0"
         x="0" />
      <use
         height="100%"
         width="100%"
         id="use4331"
         transform="matrix(1.0047096,0,0,1,2722.5189,2424.9448)"
         xlink:href="#Water"
         inkscape:tiled-clone-of="#Water"
         y="0"
         x="0" />
      <use
         height="100%"
         width="100%"
         id="use4333"
         transform="matrix(1.0047096,0,0,1,2820.9804,2424.9448)"
         xlink:href="#Water"
         inkscape:tiled-clone-of="#Water"
         y="0"
         x="0" />
      <use
         height="100%"
         width="100%"
         id="use4335"
         transform="matrix(1.0047096,0,0,1,2919.4419,2424.9448)"
         xlink:href="#Water"
         inkscape:tiled-clone-of="#Water"
         y="0"
         x="0" />
      <use
         height="100%"
         width="100%"
         id="use4337"
         transform="matrix(1.0047096,0,0,1,3017.9035,2424.9448)"
         xlink:href="#Water"
         inkscape:tiled-clone-of="#Water"
         y="0"
         x="0" />
      <use
         height="100%"
         width="100%"
         id="use4339"
         transform="matrix(1.0047096,0,0,1,3116.365,2424.9448)"
         xlink:href="#Water"
         inkscape:tiled-clone-of="#Water"
         y="0"
         x="0" />
      <use
         height="100%"
         width="100%"
         id="use4341"
         transform="matrix(1.0047096,0,0,1,3214.8266,2424.9448)"
         xlink:href="#Water"
         inkscape:tiled-clone-of="#Water"
         y="0"
         x="0" />
      <use
         height="100%"
         width="100%"
         id="use4343"
         transform="matrix(1.0047096,0,0,1,3313.2881,2424.9448)"
         xlink:href="#Water"
         inkscape:tiled-clone-of="#Water"
         y="0"
         x="0" />
      <use
         height="100%"
         width="100%"
         id="use4345"
         transform="matrix(1.0047096,0,0,1,3411.7496,2424.9448)"
         xlink:href="#Water"
         inkscape:tiled-clone-of="#Water"
         y="0"
         x="0" />
      <use
         height="100%"
         width="100%"
         id="use4347"
         transform="matrix(1.0047096,0,0,1,3510.2111,2424.9448)"
         xlink:href="#Water"
         inkscape:tiled-clone-of="#Water"
         y="0"
         x="0" />
      <use
         height="100%"
         width="100%"
         id="use4349"
         transform="matrix(1.0047096,0,0,1,3608.6727,2424.9448)"
         xlink:href="#Water"
         inkscape:tiled-clone-of="#Water"
         y="0"
         x="0" />
      <use
         height="100%"
         width="100%"
         id="use4351"
         transform="matrix(1.0047096,0,0,1,3707.1342,2424.9448)"
         xlink:href="#Water"
         inkscape:tiled-clone-of="#Water"
         y="0"
         x="0" />
      <use
         height="100%"
         width="100%"
         id="use4353"
         transform="matrix(1.0047096,0,0,1,3805.5957,2424.9448)"
         xlink:href="#Water"
         inkscape:tiled-clone-of="#Water"
         y="0"
         x="0" />
      <use
         height="100%"
         width="100%"
         id="use4355"
         transform="matrix(1.0047096,0,0,1,3904.0573,2424.9448)"
         xlink:href="#Water"
         inkscape:tiled-clone-of="#Water"
         y="0"
         x="0" />
      <use
         height="100%"
         width="100%"
         id="use4357"
         transform="matrix(1.0047096,0,0,1,4002.5188,2424.9448)"
         xlink:href="#Water"
         inkscape:tiled-clone-of="#Water"
         y="0"
         x="0" />
      <use
         height="100%"
         width="100%"
         id="use4359"
         transform="matrix(1.0047096,0,0,1,4100.9804,2424.9448)"
         xlink:href="#Water"
         inkscape:tiled-clone-of="#Water"
         y="0"
         x="0" />
      <use
         height="100%"
         width="100%"
         id="use4361"
         transform="matrix(1.0047096,0,0,1,4199.4419,2424.9448)"
         xlink:href="#Water"
         inkscape:tiled-clone-of="#Water"
         y="0"
         x="0" />
      <use
         height="100%"
         width="100%"
         id="use4363"
         transform="matrix(1.0047096,0,0,1,4297.9034,2424.9448)"
         xlink:href="#Water"
         inkscape:tiled-clone-of="#Water"
         y="0"
         x="0" />
      <use
         height="100%"
         width="100%"
         id="use4365"
         transform="matrix(1.0047096,0,0,1,4396.365,2424.9448)"
         xlink:href="#Water"
         inkscape:tiled-clone-of="#Water"
         y="0"
         x="0" />
      <use
         height="100%"
         width="100%"
         id="use4367"
         transform="matrix(1.0047096,0,0,1,4494.8265,2424.9448)"
         xlink:href="#Water"
         inkscape:tiled-clone-of="#Water"
         y="0"
         x="0" />
      <use
         height="100%"
         width="100%"
         id="use4369"
         transform="matrix(1.0047096,0,0,1,4593.2881,2424.9448)"
         xlink:href="#Water"
         inkscape:tiled-clone-of="#Water"
         y="0"
         x="0" />
      <use
         height="100%"
         width="100%"
         id="use4371"
         transform="matrix(1.0047096,0,0,1,4691.7496,2424.9448)"
         xlink:href="#Water"
         inkscape:tiled-clone-of="#Water"
         y="0"
         x="0" />
      <use
         height="100%"
         width="100%"
         id="use4373"
         transform="matrix(1.0047096,0,0,1,4790.2111,2424.9448)"
         xlink:href="#Water"
         inkscape:tiled-clone-of="#Water"
         y="0"
         x="0" />
      <use
         height="100%"
         width="100%"
         id="use4375"
         transform="matrix(1.0047096,0,0,1,4888.6727,2424.9448)"
         xlink:href="#Water"
         inkscape:tiled-clone-of="#Water"
         y="0"
         x="0" />
      <use
         height="100%"
         width="100%"
         id="use4377"
         transform="matrix(1.0047096,0,0,1,4987.1342,2424.9448)"
         xlink:href="#Water"
         inkscape:tiled-clone-of="#Water"
         y="0"
         x="0" />
      <use
         x="0"
         y="0"
         inkscape:tiled-clone-of="#Water"
         xlink:href="#Water"
         transform="matrix(1.0047096,0,0,1,5085.5958,2424.9448)"
         id="use4379"
         width="100%"
         height="100%" />
      <rect
         y="902.7937"
         x="-8.3862478e-06"
         height="234.00002"
         width="2560"
         id="rect4537"
         style="opacity:1;fill:#005c94;fill-opacity:1;stroke:none;stroke-width:3.20000005;stroke-linecap:round;stroke-linejoin:bevel;stroke-miterlimit:4;stroke-dasharray:none;stroke-opacity:1" />
    </g>
  </g>
</svg>
